# Fdb version 3
["pdflatex"] 1565523123 "/home/librantara/Documents/INTERNSHIP_DAN_TA/LateX/internship2ta2019/Librantara Erlangga/TugasAkhir/section/chapter2.tex" "/home/librantara/Documents/INTERNSHIP_DAN_TA/LateX/internship2ta2019/Librantara Erlangga/TugasAkhir/section/chapter2.pdf" "chapter2" 1565523123
  "/home/librantara/Documents/INTERNSHIP_DAN_TA/LateX/internship2ta2019/Librantara Erlangga/TugasAkhir/section/chapter2.aux" 1565523123 8 a94a2480d3289e625eea47cd1b285758 ""
  "/home/librantara/Documents/INTERNSHIP_DAN_TA/LateX/internship2ta2019/Librantara Erlangga/TugasAkhir/section/chapter2.tex" 1565523121 15350 57853852237b83621435f1174bd39a67 ""
  "/usr/share/texmf-dist/fonts/map/fontname/texfonts.map" 1550406775 3332 103109f5612ad95229751940c61aada0 ""
  "/usr/share/texmf-dist/fonts/tfm/public/cm/cmbx10.tfm" 1550406775 1328 c834bbb027764024c09d3d2bf908b5f0 ""
  "/usr/share/texmf-dist/fonts/tfm/public/cm/cmti10.tfm" 1550406775 1480 aa8e34af0eb6a2941b776984cf1dfdc4 ""
  "/usr/share/texmf-dist/fonts/type1/public/amsfonts/cm/cmbx10.pfb" 1550406775 34811 78b52f49e893bcba91bd7581cdc144c0 ""
  "/usr/share/texmf-dist/fonts/type1/public/amsfonts/cm/cmmi10.pfb" 1550406775 36299 5f9df58c2139e7edcf37c8fca4bd384d ""
  "/usr/share/texmf-dist/fonts/type1/public/amsfonts/cm/cmr10.pfb" 1550406775 35752 024fb6c41858982481f6968b5fc26508 ""
  "/usr/share/texmf-dist/fonts/type1/public/amsfonts/cm/cmsy10.pfb" 1550406775 32569 5e5ddc8df908dea60932f3c484a54c0d ""
  "/usr/share/texmf-dist/fonts/type1/public/amsfonts/cm/cmti10.pfb" 1550406775 37944 359e864bd06cde3b1cf57bb20757fb06 ""
  "/usr/share/texmf-dist/web2c/texmf.cnf" 1550406775 33301 a3134070eacafb10b1f371612ce2650d ""
  "/var/lib/texmf/fonts/map/pdftex/updmap/pdftex.map" 1557032975 3106252 d5255ed7fd6ec6ea7699581e9a54cb46 ""
  "/var/lib/texmf/web2c/pdftex/pdflatex.fmt" 1557032960 7919195 50f523a7c7946097d84349a81faee635 ""
  "chapter2.aux" 0 -1 0 ""
  "chapter2.tex" 1565523121 15350 57853852237b83621435f1174bd39a67 ""
  (generated)
  "chapter2.pdf"
  "chapter2.aux"
  "/home/librantara/Documents/INTERNSHIP_DAN_TA/LateX/internship2ta2019/Librantara Erlangga/TugasAkhir/section/chapter2.pdf"
  "chapter2.log"
  "/home/librantara/Documents/INTERNSHIP_DAN_TA/LateX/internship2ta2019/Librantara Erlangga/TugasAkhir/section/chapter2.log"
